[{"id":1,"first_name":"Shoshanna","last_name":"Banford","email":"sbanford0@virginia.edu","password":"9Ue7hfyu1l"},
{"id":2,"first_name":"Mirelle","last_name":"Tomley","email":"mtomley1@topsy.com","password":"unnBXk1tfu"},
{"id":3,"first_name":"Emelia","last_name":"Finlator","email":"efinlator2@nationalgeographic.com","password":"2m9BMQXD0L"},
{"id":4,"first_name":"Livvy","last_name":"Popescu","email":"lpopescu3@princeton.edu","password":"CF8pra"},
{"id":5,"first_name":"Meta","last_name":"Ingleston","email":"mingleston4@home.pl","password":"IP4FhT6"},
{"id":6,"first_name":"Andrea","last_name":"O'Lunny","email":"aolunny5@fastcompany.com","password":"Vvu3HTiK2Ygr"},
{"id":7,"first_name":"Gwenora","last_name":"Cyphus","email":"gcyphus6@networksolutions.com","password":"55SZlFhWh8Tm"},
{"id":8,"first_name":"Garrik","last_name":"Crady","email":"gcrady7@stumbleupon.com","password":"6AJ7iIK"},
{"id":9,"first_name":"Chastity","last_name":"Di Lucia","email":"cdilucia8@webnode.com","password":"3vxHO82RFTa"},
{"id":10,"first_name":"Matty","last_name":"Coy","email":"mcoy9@hatena.ne.jp","password":"SpVBcKK"}]
